1 10 20
100 200 125
201 210 89
900 1000 174
1034 3129 217
6145 7288 262
6207 6426 200
8270 8797 234
6485 7154 257
8361 9986 260
1496 6689 262
6732 7800 257
2667 6098 238
8478 8776 216
1868 7142 262
659 3945 238
2958 8388 262
3022 3580 199
28 3640 217
6358 6886 244
9810 9957 242
2140 5792 238
4634 6134 236
8816 9873 260
4655 7182 262
577 5279 238
4617 7932 262
5694 8508 262
2005 8925 262
9205 9747 260
7070 7976 252
1948 4626 238
9201 9507 260
3743 8508 262
3375 6924 262
2866 6385 262
6107 9917 262
6336 6986 257
5544 6151 236
3289 6743 262
3491 8157 262
7649 9792 260
1969 6402 262
4512 9881 262
4264 5643 236
1260 3933 238
5825 8607 262
8921 9846 260
436 2598 209
79 9231 262
7993 9206 247
7821 8184 252
5394 8855 262
6197 9998 260
9131 9755 260
6107 9145 262
3220 7032 262
5220 6061 236
6467 6841 244
4991 7544 262
5621 8728 262
4653 9144 262
549 6033 238
2706 5714 238
5156 7139 262
5486 6449 262
2069 5488 238
5951 6861 262
2948 4446 238
671 1636 182
1587 7213 262
3961 5198 215
7482 8081 252
1626 3890 238
7916 8055 252
305 4768 238
7936 9597 260
4514 9178 262
9516 9631 198
2682 8934 262
5065 6018 236
7724 8079 252
5940 9089 262
5645 7700 262
5420 6842 262
246 9279 262
249 3401 217
1237 6775 262
7089 9836 260
3083 3203 199
8416 9452 260
3869 9754 262
2981 4192 238
9849 9931 242
3066 5103 238
8430 9041 247
3784 8768 262
6885 7254 257
358 5641 238
7734 8433 252
1113 6619 262
3418 4587 238
9867 9992 242
4519 7817 262
3767 6009 236
8627 9237 247
9113 9451 260
3225 5809 238
7122 9521 260
2717 6533 262
9964 9973 136
5149 8722 262
244 9972 262
3747 7252 262
6468 8827 257
1543 5353 238
7315 9883 260
645 8631 262
4553 4968 210
8057 8946 234
6604 6989 257
2898 4699 238
1516 6810 262
5435 5800 236
4687 6474 262
2958 4485 238
9865 9986 242
4109 5151 215
4691 8441 262
3460 9157 262
5335 5407 192
2200 4969 238
7450 8709 252
8435 8715 203
8295 9788 260
8050 8749 234
9644 9683 185
680 8918 262
3775 9700 262
62 8809 262
3354 5585 238
1259 9965 262
866 2120 182
3932 5017 215
6817 7940 257
2545 2636 191
266 8412 262
5378 6138 236
3108 8545 262
5143 7740 262
3116 8653 262
7631 8701 252
6469 7292 257
1064 1569 182
8027 9757 260
4546 6713 262
9124 9350 260
8998 9613 260
5330 5908 236
34 5877 238
9858 9930 242
3654 5110 238
8228 8573 234
6972 9370 260
6457 7368 257
1285 8123 262
1381 5807 238
5419 7053 262
190 9814 262
8943 9590 260
3026 7567 262
1874 9145 262
8671 8804 216
3230 4341 238
2285 5810 238
4652 7179 262
3511 9125 262
522 2174 182
3823 6888 262
5119 5958 236
9850 9914 242
6445 9855 260
2421 2573 209
5587 9468 262
5380 5496 192
9919 9949 167
3970 7396 262
939 1101 169
3130 3254 199
910 5058 238
4102 7908 262
8598 9348 260
4151 7829 262
4643 6009 236
244 2822 209
5605 5990 218
4670 9859 262
4380 8114 262
5058 6855 262
5539 6755 262
1238 8369 262
1265 1586 177
9989 9999 180
9975 9980 167
7298 8710 252
491 7774 262
6064 8864 262
7019 7163 195
1879 2246 183
6088 8677 262
5857 7016 262
7459 8700 252
7335 7944 239
4418 6193 262
8569 8784 216
5754 9056 262
4465 5871 236
5118 8375 262
8852 9389 260
5849 9816 262
7089 9482 260
1126 3211 217
1253 5997 238
149 6132 238
6639 6922 226
3155 8090 262
5559 6694 262
508 1284 182
6650 9678 260
8654 9306 260
9475 9966 242
9882 9923 242
7146 8303 252
709 8451 262
1589 5135 238
7106 9059 252
3886 8703 262
5764 8402 262
1191 5755 238
1285 7041 262
6492 9965 260
3809 3912 176
1486 2362 183
4691 6322 262
5868 9691 262
3766 3909 176
2438 4875 238
8971 9005 185
5425 6139 236
6702 8994 257
5772 5950 218
4034 7333 262
4376 6710 262
9214 9667 260
1566 6485 262
1461 7127 262
9085 9771 260
7636 9705 260
8429 9496 260
2621 3522 217
5639 6243 262
9068 9865 260
1752 9879 262
7531 7623 177
8063 8933 234
6006 6154 187
2857 7133 262
9649 9852 211
8080 9766 260
5042 9990 262
2709 4896 238
7049 8708 252
8294 8531 234
9273 9348 185
9125 9680 260
1961 6668 262
6501 7248 257
5591 6367 262
212 5641 238
2807 8748 262
8395 9471 260
7633 9549 260
8253 9059 247
4361 9318 262
6217 7288 257
6262 9061 257
4283 4486 215
862 6272 262
5429 7728 262
7991 9122 247
5734 8291 262
5641 5775 205
9951 9961 92
9097 9167 198
2065 3500 217
9543 9757 198
7843 8936 252
9997 9999 180
5837 6964 262
4190 5571 236
1532 9506 262
2804 5917 238
482 5161 238
4527 5240 210
2794 9142 262
8095 9276 260
2553 3281 217
8267 9920 260
9197 9208 154
2194 8266 262
2281 2962 217
4874 7560 262
1211 5338 238
5856 9403 262
7634 9879 260
8858 9584 260
722 6485 262
9920 9922 136
3593 5347 238
5953 9410 262
9571 9754 198
80 788 171
5852 5950 187
3528 9793 262
2045 7768 262
5115 8428 262
4499 8623 262
3007 9578 262
2734 6989 262
7896 9506 260
2512 8566 262
8800 9468 260
9 4232 238
292 9757 262
3406 8385 262
2826 3916 238
2792 4668 238
8369 8413 159
7012 7493 239
5807 8896 262
559 8753 262
821 8173 262
7665 9759 260
2586 2592 147
3702 9647 262
6699 8190 257
667 2121 182
1502 7029 262
7748 8256 252
2627 7986 262
9186 9554 260
7513 9180 252
5182 9555 262
2453 8102 262
7999 9863 260
6356 6428 200
9792 9841 167
4463 6768 262
7162 9056 252
890 2376 183
3148 4942 238
8466 9130 247
220 5796 238
5658 6646 262
5096 9267 262
4809 5118 210
6470 7823 257
5243 8045 262
2018 9324 262
4501 5920 236
3735 8536 262
1524 6708 262
9584 9820 198
5421 7955 262
8615 9575 260
1294 3970 238
8596 9826 260
1689 3201 217
3973 5373 215
4465 5520 210
1533 7404 262
1587 2981 217
3209 6834 262
9524 9824 198
1550 8795 262
5157 7196 262
9038 9828 260
6441 6876 244
8568 9090 247
5265 6895 262
4482 9889 262
15 2319 183
1229 6791 262
3861 4580 215
4834 8099 262
6884 9850 260
9548 9675 198
7863 8752 252
536 8855 262
3363 4936 238
1732 7193 262
1092 9145 262
1057 1544 182
7545 8793 252
9646 9650 167
1005 7413 262
6239 8656 257
9939 9981 167
4417 6794 262
3473 5889 238
3456 8692 262
5948 6965 262
271 3000 217
9842 9847 74
2941 9899 262
7661 8240 252
5646 7474 262
542 7889 262
7329 9048 252
7240 8238 252
1067 1344 182
4574 7084 262
6980 9535 260
3299 6832 262
5360 9780 262
9217 9508 260
6104 9071 262
3231 8044 262
7635 9701 260
6704 8711 257
7747 9799 260
9455 9562 198
8149 9624 260
3865 4078 189
3002 4335 238
6365 9276 260
4453 7988 262
1455 6252 262
2516 2581 178
7242 8625 252
7077 8457 252
9990 9999 180
7353 8556 252
6911 9886 260
5225 6654 262
132 5391 238
6057 8160 262
6950 8162 252
7212 8320 252
3330 6169 238
6871 6916 182
9970 9999 180
8734 9707 260
1523 2685 209
5453 8218 262
8110 9915 260
1388 7061 262
7379 8899 252
9434 9857 211
7568 9974 260
9110 9911 260
6061 9634 262
9162 9892 260
8811 9762 260
2229 7131 262
2850 3063 217
4294 8359 262
5292 8162 262
9804 9873 211
6013 8310 262
2942 9186 262
8774 9617 260
8999 9167 198
821 8006 262
3989 6560 262
9175 9273 260
5850 6900 262
3078 4294 238
7117 7328 195
1270 5199 238
2710 4413 238
2284 5660 238
4566 5644 236
9911 9945 167
8160 8300 190
959 8413 262
9545 9577 198
7383 9272 260
4948 5653 236
4008 8343 262
5524 8512 262
5558 8422 262
6522 7103 257
8208 9210 247
5752 8901 262
9262 9825 198
9348 9606 198
5879 7829 262
335 4947 238
634 5813 238
6934 7590 257
8315 9933 260
1127 9166 262
5717 7276 262
7462 8294 252
6654 7049 257
4379 5136 215
9424 9884 211
5048 7021 262
8983 9259 260
1136 4120 238
7646 9003 252
1830 8843 262
7652 8357 252
5416 9090 262
4677 6832 262
7913 8420 252
9415 9679 198
2876 3459 217
125 392 144
526 5115 238
9501 9677 198
534 577 137
5942 9056 262
7295 9624 260
2800 3250 217
9014 9031 185
5337 6425 262
6603 7814 257
3724 4271 202
3666 5272 238
590 4690 238
6826 9988 260
7035 9799 260
5338 7660 262
956 2499 209
7802 9805 260
3820 8732 262
3779 9728 262
4768 9784 262
3361 3473 181
4233 5612 236
5783 7697 262
5001 7888 262
1776 5730 238
3768 5292 215
3457 5043 238
7508 7889 221
2736 9289 262
1213 9649 262
2011 6820 262
984 5702 238
9867 9887 242
4351 7624 262
1016 5670 238
9978 9986 167
8448 8964 247
1552 9709 262
7516 9652 260
887 3634 217
4077 8749 262
2610 7509 262
8366 9137 247
5665 6750 262
8997 9896 260
1775 2891 209
3025 3057 155
6620 9137 257
1137 8577 262
6720 6885 182
2501 8271 262
8769 9358 260
151 325 131
9048 9759 260
3325 7713 262
2059 9901 262
7455 9488 260
439 8102 262
7699 8991 252
2512 3154 217
7173 7450 239
7075 7288 195
8528 8848 216
5475 9692 262
3785 5959 236
4586 5481 210
4614 8998 262
760 2279 183
9920 9955 167
5940 8777 262
6683 9504 260
7132 9776 260
398 2322 183
6304 9923 260
3261 9441 262
4012 8358 262
2431 3414 217
5649 7669 262
9341 9668 198
340 9196 262
6215 8564 257
5650 8259 262
7829 8416 252
9980 9981 74
9109 9791 260
7396 9841 260
6535 8592 257
7739 8452 252
7580 9209 252
3118 4509 238
3174 3628 199
3786 8501 262
4097 5930 236
6535 6894 244
2157 3371 217
1644 9194 262
3595 3775 238
551 1879 182
673 4041 238
6672 9354 260
7571 7937 221
9172 9825 260
4213 8185 262
614 9138 262
9975 9998 180
4077 6971 262
9113 9910 260
4649 6438 262
8970 9742 260
2855 6806 262
9480 9591 198
7938 8974 252
7776 8971 252
2263 9289 262
7276 9075 252
5395 9180 262
4383 9835 262
4952 8044 262
9205 9286 260
4206 9349 262
1101 9909 262
9006 9130 185
9231 9751 260
8502 9435 260
5533 8752 262
7624 9537 260
9771 9983 242
4827 6092 236
6294 6855 244
1533 2841 209
8846 8877 172
8310 9599 260
764 803 153
8514 9617 260
8560 9692 260
5947 9507 262
6897 9331 260
8170 9617 260
524 9669 262
9556 9840 198
2814 6088 238
496 7253 262
5818 9124 262
5970 7944 262
6031 9177 262
1422 6745 262
8727 9291 260
8793 8811 141
4927 5159 210
5319 5556 205
1610 1679 180
8101 9540 260
3563 9467 262
9615 9962 242
888 6201 262
3443 6857 262
4595 5907 236
3535 8640 262
5846 7082 262
6602 7255 257
249 9869 262
3507 3908 238
1466 3621 217
7861 8724 252
7777 8223 252
5620 8846 262
6213 6242 187
6494 9689 260
6688 7247 257
7165 9178 252
9521 9601 198
3451 4246 238
8568 9365 260
4208 5090 215
7606 9203 252
5407 9642 262
8904 9070 247
75 428 144
5715 9365 262
4208 9810 262
4962 8268 262
9824 9897 242
8252 9627 260
9416 9447 154
4552 4888 197
3946 9022 262
4587 9697 262
1128 1164 182
8335 9030 247
4446 6546 262
1610 9151 262
5935 9252 262
6102 8504 262
8932 8994 247
70 7008 262
3973 7359 262
7233 9524 260
4230 8871 262
3587 6868 262
1673 9654 262
2646 4594 238
5810 7975 262
6322 7302 257
1751 2580 209
1369 5416 238
3784 4469 215
6335 8752 257
9007 9465 260
8101 8587 234
468 4337 238
6680 6901 182
8989 9704 260
1921 3351 217
2995 5043 238
5688 5822 205
3594 5095 238
3785 5270 215
4391 8579 262
9758 9816 198
2787 3356 217
5064 9989 262
9310 9967 242
3498 4660 238
2380 7886 262
7831 8938 252
2262 8732 262
3418 8805 262
7403 9084 252
3633 7258 262
3514 8529 262
5552 9443 262
9171 9364 260
5569 8932 262
4845 6560 262
5267 8937 262
7145 8384 252
8648 9342 260
1059 3187 217
7502 9895 260
6351 8708 257
187 3657 217
4824 6064 236
336 7103 262
969 1931 182
7707 7755 177
1413 5118 238
7346 9811 260
4244 9481 262
9988 9996 180
2256 7971 262
1634 3675 217
1046 8289 262
8891 9757 260
6037 6253 262
164 9625 262
8876 9612 260
4030 9522 262
91 7284 262
6255 7303 257
4421 7776 262
9446 9737 198
8058 8177 190
2733 9752 262
8813 9482 260
9446 9471 154
5260 9670 262
5385 6389 262
591 4236 238
2707 2927 217
3300 8092 262
5894 7958 262
7382 9279 260
8883 8903 185
643 3918 238
1738 2657 209
2515 3034 217
5745 8934 262
5490 6835 262
8866 8904 185
9911 9993 180
3912 4408 215
8592 9716 260
8596 8642 172
1079 1253 182
6886 8528 257
5813 6740 262
6680 6924 226
2834 7864 262
432 3900 238
9350 9820 198
7484 9569 260
9821 9892 242
4426 9163 262
74 2215 182
7659 8828 252
6183 8728 257
6848 8710 257
718 5133 238
4253 9827 262
9080 9990 260
9772 9934 242
108 9554 262
481 7522 262
2672 3183 217
1247 5342 238
2772 3198 217
2013 8229 262
5771 6755 262
5710 8860 262
6914 7730 257
8711 9479 260
9974 9976 167
2246 3158 217
3300 5517 238
5238 7923 262
1329 9116 262
2428 6041 238
5751 7983 262
6682 8038 257
335 8592 262
7590 8584 252
7312 9182 252
187 2928 217
3122 6008 238
1156 7397 262
3199 4947 238
6056 6297 262
5324 5870 236
1257 4009 238
7425 7823 221
9078 9923 260
4859 5424 210
65 2748 209
4858 6500 262
8293 9246 247
1608 2768 209
8840 9443 260
9753 9907 242
818 1302 182
4632 5277 210
3333 6595 262
1473 5109 238
8378 9062 247
7665 9278 260
5880 9915 262
2657 5405 238
6368 8420 257
2554 6707 262
6739 7345 257
7511 7968 252
8488 9480 260
3557 7205 262
427 9114 262
6510 7811 257
8021 9456 260
1005 2287 183
3431 7787 262
3657 4257 238
635 5381 238
2385 9391 262
9921 9973 167
3712 9278 262
8477 9207 247
9436 9772 198
9459 9459 61
7366 7448 239
37 9656 262
5296 7245 262
5314 8988 262
9300 9393 198
8056 8224 190
8283 9245 247
8748 9221 247
8186 9542 260
5129 8959 262
3465 6373 262
9759 9767 154
3987 7848 262
6642 9580 260
1776 4494 238
8603 9496 260
3485 6786 262
5363 6837 262
8114 9475 260
169 1869 182
8639 8687 172
5908 7227 262
8173 8546 234
2611 3728 238
7452 8780 252
8994 9322 260
535 5885 238
7640 9637 260
3360 9266 262
4175 5792 236
3525 7939 262
2191 4855 238
433 8490 262
8902 9176 247
714 3087 217
192 894 179
4983 7302 262
2848 9037 262
1865 2058 175
9770 9947 242
2679 4115 238
6629 6904 182
6950 9988 260
9305 9939 242
3174 6558 262
4647 9188 262
9787 9822 198
789 5850 238
3365 6584 262
7908 9833 260
2506 5866 238
2472 8086 262
7924 9637 260
4033 5075 215
2136 5562 238
881 5429 238
9774 9962 242
7714 7902 221
1066 4331 238
8818 9865 260
5767 9313 262
1759 5089 238
9593 9747 185
5285 5453 192
3434 4469 238
1367 7613 262
5951 8464 262
9316 9809 198
9202 9388 260
5534 6899 262
3779 4030 189
8427 8958 216
6323 7509 257
7844 8967 252
8431 9694 260
7614 9739 260
6261 8426 257
2022 5623 238
7491 8829 252
1037 9884 262
2313 4507 238
5022 8827 262
9905 9974 167
2209 4331 238
123 2418 183
6987 7585 239
1100 4935 238
317 1673 182
1077 4733 238
6160 7246 262
3962 4780 215
2126 9873 262
1542 6641 262
7830 9189 252
8267 8811 234
216 2788 209
7320 9545 260
4718 7245 262
6879 7872 257
6598 8898 257
8719 9003 247
4166 4961 215
4721 5785 236
7744 8840 252
3084 8312 262
9071 9951 260
7843 8189 252
8860 9735 260
2811 4361 238
35 7899 262
4955 5740 236
3404 3612 194
1858 5816 238
3924 4545 215
6845 7028 257
2026 3505 217
8909 9628 260
337 8453 262
