350643 746697 509
481834 567727 470
689701 150875 509
459497 242792 449
301566 665703 509
852530 862907 419
278574 822258 509
521868 541739 408
122244 200544 383
163567 678626 509
146716 162923 383
133769 984891 525
404662 443198 449
591198 767017 509
928609 89780 525
770698 42439 509
289685 360424 441
602402 797756 509
513633 397816 470
63609 290442 443
279673 249115 407
198142 904884 525
624369 518364 452
717635 501514 509
873927 475827 525
342168 681426 509
818650 532350 509
838742 726421 525
582969 207329 470
939704 49475 525
418967 146039 449
605411 698115 509
930522 120563 525
967110 98779 525
153234 787992 509
497244 134521 449
501319 11153 449
819790 878236 525
172331 737134 509
400758 427682 449
155310 680955 509
207295 548206 470
392816 607743 470
938792 256373 525
698322 759310 504
572327 834086 509
950757 801035 525
391338 433716 449
390084 185854 443
624056 877441 525
562750 979086 525
437430 436008 387
384811 412891 449
372742 787367 509
757408 276730 509
484618 860136 525
788605 572942 509
854854 690538 525
311267 469119 449
61988 87440 351
447427 701018 509
330513 213318 443
170834 290053 443
681220 350988 509
725208 279325 509
594910 826017 509
854824 876206 432
657388 362252 509
61866 853710 525
695690 561737 509
332628 770902 509
549795 213455 470
399159 607166 470
487763 309178 449
501302 429972 444
329261 119834 443
623441 927705 525
99608 667671 509
217567 817528 509
630356 153023 509
958810 297956 525
843931 379566 525
825556 185805 509
238242 475097 449
261384 943678 525
20862 523511 470
983627 565910 525
367652 803980 509
873250 802336 525
748809 581779 509
860973 745362 525
395112 997063 525
387456 178911 443
924130 192462 525
266386 127737 443
530751 18499 470
986510 126566 525
959186 229726 525
188743 520638 470
292411 182530 443
567625 157439 470
266374 383459 441
153226 645900 509
723889 101331 509
920064 745993 525
669323 229095 509
579404 421835 470
707384 896138 525
595987 972608 525
879953 980382 507
58158 191067 383
875880 473162 525
582263 44921 470
673321 636964 442
97604 928405 525
711580 495676 509
23536 676836 509
603590 852867 525
843668 839119 388
382000 527959 470
218069 580491 470
230207 619756 470
295383 707478 509
276994 10392 443
631952 115343 509
255947 434363 449
570487 460274 470
43828 843784 525
669978 404464 509
31107 152309 375
663119 102247 509
877288 963771 507
239298 778563 509
139427 169226 383
610670 236080 470
248578 97613 443
83815 515067 470
571464 351637 470
992659 520260 525
568618 983076 525
709881 628322 504
237810 219865 443
926577 693267 525
412934 709363 509
406715 767454 509
945604 653891 525
825260 851400 525
363396 398130 436
395076 377839 436
422719 466860 444
567834 77893 470
580429 536424 452
790520 802029 468
330442 502614 449
733507 752747 424
581202 746148 509
848147 536907 525
607020 229228 470
159585 149650 383
742979 869373 525
721182 348440 509
433807 858372 525
351648 221002 443
535763 290454 470
552759 502651 470
934719 381469 525
986654 150882 525
40693 726558 509
56269 853492 525
144937 63587 375
292524 416991 449
434977 564553 470
733666 272288 509
589148 487336 470
83722 680833 509
210895 989146 525
860039 16243 525
659146 663530 354
992878 2883 525
274618 405659 441
960034 22140 525
148935 532306 470
684862 455130 509
313117 148833 443
953066 789542 525
768648 237104 509
916112 149427 525
631929 518410 509
704553 420211 509
815398 420290 509
504497 514038 470
489997 17024 449
487609 500161 426
202520 867627 525
347035 797383 509
594140 650804 509
761543 305543 509
829819 787325 468
363196 510145 449
885482 680613 525
985491 28822 525
384205 500018 449
80309 105019 341
888191 354201 525
174317 16473 383
204589 294316 443
150168 348101 443
836578 507552 509
15417 673047 509
140189 301690 443
429929 80617 449
221214 733014 509
538859 651630 509
933504 955028 507
632414 869036 525
554687 327264 470
884556 375959 525
946779 786459 525
439711 695052 509
574486 93995 470
239410 673126 509
605527 788764 509
876933 823041 525
801777 552945 509
230411 71305 386
833853 273164 509
372766 691965 509
751267 864565 525
839314 99654 525
492664 63050 449
184935 753454 509
584641 341571 470
244120 216831 443
725270 532961 509
160272 263225 443
793890 628147 504
113852 316847 443
359815 772037 509
46268 203326 383
401758 685989 509
22195 426347 449
43932 971539 525
407293 327000 441
665168 871428 525
49984 945379 525
227336 743315 509
558619 929755 525
487700 342149 449
3324 112544 354
70306 523767 470
