50 37 110
91 47 116
91 22 116
43 52 105
6 52 112
91 80 111
14 79 116
91 78 111
36 96 116
32 69 113
23 24 16
14 8 20
88 8 116
47 63 113
1 13 20
1 72 113
42 21 112
31 77 116
29 22 112
32 88 116
13 13 10
56 3 113
54 27 113
21 39 112
4 88 116
612 3037 217
4542 4842 197
7769 2546 262
2138 8421 262
1232 8001 262
3157 5755 238
9210 5783 262
5452 9380 262
7496 5346 262
510 2606 209
3840 3916 176
1500 9819 262
1456 6606 262
167 1288 182
8412 8331 234
938 4683 238
661 2435 183
5051 891 238
1350 2145 180
2184 7794 262
5634 5205 236
8971 9154 185
8913 3278 262
3406 8189 262
5278 3300 238
4142 943992 525
9426 224549 386
3671 620984 470
1869 681409 509
2757 611347 470
6144 240305 443
9364 688444 509
2982 726673 509
4638 775688 509
8085 790193 509
6783 254633 443
9971 237428 443
4731 275153 443
3261 102710 351
4897 372757 443
5305 797837 509
2506 99107 351
4372 256496 443
8308 942102 525
4374 310310 443
509 139829 354
302 693608 509
1098 532081 470
3367 420522 449
4547 742775 509
281231 104863 443
623945 166672 470
102703 815551 509
600166 346936 470
553304 571851 421
655745 659026 429
817011 579618 509
949805 507564 525
307056 285971 389
831590 399526 509
468507 16015 449
278524 646527 509
430045 725258 509
383297 481936 449
942625 554856 525
921458 113504 525
232732 460994 449
317789 320746 353
75996 849401 525
467609 510908 426
756422 428685 509
498551 570271 470
31012 982114 525
982815 278961 525
788336 523845 509
